{
    "name": "Instrument 1",
    "volume": 64,
    "loop": false,
    "base_note": "D-5",
    "num_gens": 2,
    "gens": [
        {
            "type": "square",
            "volume": 25,
            "panning": 0,
            "freq": 100,
            "envelope_volume": {
                "enabled": false,
                "data": [
                ]
            },
            "envelope_pitch": {
                "enabled": false,
                "data": [
                ]
            }
        },
        {
            "type": "square",
            "volume": 16,
            "panning": 0,
            "freq": 96.0,
            "envelope_volume": {
                "enabled": false,
                "data": [
                ]
            },
            "envelope_pitch": {
                "enabled": false,
                "data": [
                ]
            }
        }
    ],
    "envelope_volume": {
        "enabled": true,
        "data": [
            [
                0,
                10
            ],
            [
                20,
                0
            ]
        ]
    },
    "envelope_pitch": {
        "enabled": true,
        "data": [
            [
                0,
                32
            ],
            [
                10,
                32
            ]
        ]
    }
}
