{
	"module": {
		"title": "120beat",
		//"bpm": 168,
		"bpm": 120,
		// XXX TODO ignore data in patterns when loading module,
		// if it exceeds the number of tracks (num_tracks) as useless?
		"num_tracks": 2
		//"num_tracks": 1
	},
		
	"instruments": [
		{
			"num": 1, // XXX FIXME
			"name": "Instrument 1",
			"volume": 64,
			"loop": false,
			"num_gens": 2,
			"gens": [
				// Gens data
				{
					"type": "square",
					//"volume": 64,
					"volume": 25, // 0.40
					"panning": 0,
					//"base_note": 48,
					//"tune": 127,
					"freq": 100,
					
					// XXX not loaded
					"envelope_volume": {
						"enabled": true,
						"data": []
					},
					"envelope_pitch": {
						"enabled": true,
						"data": []
					}
				},
				{
					// id=2 ?
					"__id": 2,
					"type": "square",
					//"volume": 64,
					"volume": 16, // 0.25
					"panning": 0,
					//"base_note": 0,
					//"tune": 127
					//"freq": 440 // C-4
					"freq": 96
				}
			],
			"envelope_volume": {
				// Envelope data
				"enabled": true,
				"loop_enabled": false,
				"loop_points": [1, 2],
				"loop_type": "forward",
				"sustain_enabled": true,
				"sustain_point": 1,
				"data": [
					[0, 0],
					[10, 64]
				]
			},
			"envelope_panning": {
				"enabled": false,
				"data": [
					[0, 0], // 0 is center
					[10, -32], // max left (-32)
					[20, 32] // max right (+32)
				]
			},
			"envelope_pitch": {
				"enabled": true,
				"data": [
					[0, 32],
					[10, 32]
				]
			}
		},
		{
			"num": 2, // XXX FIXME
			"name": "Instrument 2",
			"volume": 64,
			"loop": false,
			"num_gens": 1,
			"gens": [
				// Gens data
				{
					"type": "square",
					//"volume": 64,
					"volume": 16, // 0.40
					"panning": 0,
					//"base_note": 48,
					//"tune": 127,
					"freq": 100
				}
			],
			"envelope_volume": {
				// Envelope data
				"enabled": false,
				"data": []
			},
			"envelope_pitch": {
				"enabled": false
				//"data": []
			}
		}
	],

	"orders": [0],
		
	"patterns": [
		{
			//"id": 0,
			"num": 0,
			//"ntracks": 4,
			"num_tracks": 2,
			//"nrows": 64,
			"num_rows": 64,
			"tracks": [
				{
					"cells": [
						["C-4", 1, null, null],
						[null, null, null, null],
						[null, null, null, null],
						[null, null, null, null],
						[null, null, null, null],
						[null, null, null, null],
						[null, null, null, null],
						[null, null, null, null],
						["F-4", 1, null, null],
						[null, null, null, null],
						[null, null, null, null],
						[null, null, null, null],
						[null, null, null, null],
						[null, null, null, null],
						[null, null, null, null],
						[null, null, null, null],
						[null, null, null, null],
						[null, null, null, null],
						[null, null, null, null],
						[null, null, null, null],								
						[null, null, null, null],
						[null, null, null, null],
						[null, null, null, null],
						[null, null, null, null],
						["F-4", 1, null, null],
						[null, null, null, null],
						[null, null, null, null],
						[null, null, null, null],
						[null, null, null, null],
						["D#4", 1, null, null],
						[null, null, null, null],
						[null, null, null, null],
						// 32
						[null, null, null, null],
						[null, null, null, null],
						[null, null, null, null],
						["F-4", 1, null, null],
						[null, null, null, null],
						[null, null, null, null],
						[null, null, null, null],
						[null, null, null, null],
						["F-4", 1, null, null],
						[null, null, null, null],
						[null, null, null, null],
						[null, null, null, null],
						[null, null, null, null],
						["F-4", 1, null, null],
						[null, null, null, null],
						[null, null, null, null],
						["G-4", 1, null, null],
						["E-4", 1, null, null],
						[null, null, null, null],
						[null, null, null, null],								
						["C-4", 1, null, null],
						["E-4", 1, null, null],
						["C-4", 1, null, null],
						[null, null, null, null],
						[null, null, null, null],
						["C-4", 1, null, null],
						["C-4", 1, null, null],
						[null, null, null, null],
						[null, null, null, null],
						[null, null, null, null],
						[null, null, null, null],
						[null, null, null, null]
					]
				},
				{
					"cells":  [
						//["C-5", 2, null, null],
						[null, null, null, null],
						[null, null, null, null],
						[null, null, null, null],
						[null, null, null, null],
						["C-5", 2, null, null],
						[null, null, null, null],
						[null, null, null, null],
						[null, null, null, null],
						[null, null, null, null],
						[null, null, null, null],
						[null, null, null, null],
						[null, null, null, null],
						["C-5", 2, null, null],
						[null, null, null, null],						
						[null, null, null, null],
						[null, null, null, null],
						// 16
						[null, null, null, null],
						[null, null, null, null],
						[null, null, null, null],
						[null, null, null, null],
						[null, null, null, null],
						[null, null, null, null],
						[null, null, null, null],
						[null, null, null, null],
						[null, null, null, null],
						[null, null, null, null],
						[null, null, null, null],
						[null, null, null, null],
						[null, null, null, null],
						[null, null, null, null],
						[null, null, null, null],
						[null, null, null, null],
						// 32
						[null, null, null, null],
						[null, null, null, null],
						[null, null, null, null],
						[null, null, null, null],
						[null, null, null, null],
						[null, null, null, null],
						[null, null, null, null],
						[null, null, null, null],
						[null, null, null, null],
						[null, null, null, null],
						[null, null, null, null],
						[null, null, null, null],
						[null, null, null, null],
						[null, null, null, null],
						[null, null, null, null],
						[null, null, null, null],
						[null, null, null, null],
						[null, null, null, null],
						[null, null, null, null],
						[null, null, null, null],
						[null, null, null, null],
						[null, null, null, null],
						[null, null, null, null],
						[null, null, null, null],
						[null, null, null, null],
						[null, null, null, null],
						[null, null, null, null],
						[null, null, null, null],
						[null, null, null, null],
						[null, null, null, null],
						[null, null, null, null],
						[null, null, null, null]
					]
				},
				{
					"cells":  [
						["C-5", 3, 10, "2aa"],
						["C-5", 3, 10, "2aa"],
						["C-5", 3, 20, "1ff"],
						["C-5", 3, 20, "1ff"],
						["C-5", 3, 30, "2aa"],
						["C-5", 3, 30, "2aa"],
						["C-5", 3, 40, "1ff"],
						["C-5", 3, 50, "1ff"],
						["C-5", 3, 60, "100"],
						["C-5", 3, 70, "100"],
						["C-5", 3, null, "100"],
						[null, null, null, null],
						["C-5", 3, null, null],
						[null, null, null, null],						
						["C-5", 3, null, null],
						[null, null, null, null],
						// 16
						["C-5", 3, null, null],
						[null, null, null, null],
						["C-5", 3, null, null],
						[null, null, null, null],
						["C-5", 3, null, null],
						[null, null, null, null],
						["C-5", 3, null, null],
						[null, null, null, null],
						["C-5", 3, null, null],
						[null, null, null, null],
						["C-5", 3, null, null],
						[null, null, null, null],
						["C-5", 3, null, null],
						[null, null, null, null],						
						["C-5", 3, null, null],
						[null, null, null, null],
						// 32
						["C-5", 3, null, null],
						[null, null, null, null],
						["C-5", 3, null, null],
						[null, null, null, null],
						["C-5", 3, 60, null],
						[null, null, null, null],
						["C-5", 3, 60, null],
						[null, null, null, null],
						["C-5", 3, 40, null],
						[null, null, null, null],
						["C-5", 3, 40, null],
						[null, null, null, null],
						["C-5", 3, 20, null],
						[null, null, null, null],						
						["C-5", 3, 20, null],
						[null, null, null, null],
						// 48
						["C-5", 3, 80, null],
						[null, null, null, null],
						["C-5", 3, 60, null],
						[null, null, null, null],
						["C-5", 3, 40, null],
						[null, null, null, null],
						["C-5", 3, 20, null],
						[null, null, null, null],
						["C-5", 3, 0, null],
						[null, null, null, null],
						["C-5", 3, 0, null],
						[null, null, null, null],
						["C-5", 3, 0, null],
						[null, null, null, null],						
						["C-5", 3, 0, null],
						[null, null, null, null]
					]
				}
			]
	
		}	
	]
}

